[
  ["2's complement integer representation", "CSCI-410"],
  ["Digital logic  (AND, OR, NOT, NAND, NOR, XOR)", "CSCI-410"],
  ["Boolean algebra", "CSCI-410"],
  ["Digital logic – combinational logic (MUX, DMUX)", "CSCI-410"],
  ["Digital logic – sequential logic (Flip-flops, registers)", "CSCI-410"],
  ["Digital logic – ALU construction (adders, carry design)", "CSCI-410"],
  ["Assembly language programming (RISC)", "CSCI-410"],
  ["Assembly language translation to machine code", "CSCI-410"],
  ["Recursive descent parsing", "CSCI-410"],
  ["Scanners/tokenizers", "CSCI-410"],
  ["Context free grammars", "CSCI-410"],
  ["Regular expressions", "CSCI-410"],
  ["VM language and concepts", "CSCI-410"],
  ["VM translator (VM code to ASM)", "CSCI-410"],
  ["High Level language concepts", "CSCI-410"],
  ["High Level language compiler (to VM)", "CSCI-410"],
  ["Datapath and control", "CSCI-341"],
  ["Pipelining", "CSCI-341"],
  ["Memory hierarchy", "CSCI-341"],
  ["CPU performance evaluation", "CSCI-341"],
  ["Computer arithmetic algorithms", "CSCI-341"],
  ["2's complement integer representation", "CSCI-341"],
  ["Digital logic  (AND, OR, NOT, NAND, NOR, XOR)", "CSCI-341"],
  ["Boolean algebra", "CSCI-341"],
  ["Digital logic – combinational logic (MUX, DMUX)", "CSCI-341"],
  ["Digital logic – sequential logic (Flip-flops, registers)", "CSCI-341"],
  ["Digital logic – ALU construction (adders, carry design)", "CSCI-341"],
  ["Assembly language programming (RISC)", "CSCI-341"],
  ["Recursive descent parsing", "CSCI-498"],
  ["Scanners/tokenizers", "CSCI-498"],
  ["Context free grammars", "CSCI-498"],
  ["Regular expressions", "CSCI-498"],
  ["VM language and concepts", "CSCI-498"],
  ["VM translator (VM code to ASM)", "CSCI-498"],
  ["High Level language concepts", "CSCI-498"],
  ["High Level language compiler (to VM)", "CSCI-498"],
  ["High Level language concepts", "CSCI-400"]
]