[
  {
    "courseNumber": "CSCI-410",
    "courseTitle": "Elements of Computing Systems"
  },
  {
    "courseNumber": "CSCI-341",
    "courseTitle": "Computer Organization"
  },
  {
    "courseNumber": "CSCI-498",
    "courseTitle": "Compiler Design"
  },
  {
    "courseNumber": "CSCI-400",
    "courseTitle": "Principles of Programming Languages"
  }
]