[
  {
    "description": "2's complement integer representation"
  },
  {
    "description": "Digital logic  (AND, OR, NOT, NAND, NOR, XOR)"
  },
  {
    "description": "Boolean algebra"
  },
  {
    "description": "Digital logic – combinational logic (MUX, DMUX)"
  },
  {
    "description": "Digital logic – sequential logic (Flip-flops, registers)"
  },
  {
    "description": "Digital logic – ALU construction (adders, carry design)"
  },
  {
    "description": "Assembly language programming (RISC)"
  },
  {
    "description": "Assembly language translation to machine code"
  },
  {
    "description": "Recursive descent parsing"
  },
  {
    "description": "Scanners/tokenizers"
  },
  {
    "description": "Context free grammars"
  },
  {
    "description": "Regular expressions"
  },
  {
    "description": "VM language and concepts"
  },
  {
    "description": "VM translator (VM code to ASM)"
  },
  {
    "description": "High Level language concepts"
  },
  {
    "description": "High Level language compiler (to VM)"
  },
  {
    "description": "Datapath and control"
  },
  {
    "description": "Pipelining"
  },
  {
    "description": "Memory hierarchy"
  },
  {
    "description": "CPU performance evaluation"
  },
  {
    "description": "Computer arithmetic algorithms"
  }
]